<svg xmlns="http://www.w3.org/2000/svg" viewBox="0 0 80 80">
  <defs>
    <style>
      .ms-cls-2{fill:#f25022}.ms-cls-3{fill:#7fba00}.ms-cls-4{fill:#00a4ef}.ms-cls-5{fill:#ffb900}
    </style>
  </defs>
  <g id="MS-symbol">
    <path class="ms-cls-2" d="M3.99 5.56h34.22v34.22H3.99z"/>
    <path class="ms-cls-3" d="M41.77 5.56h34.22v34.22H41.77z"/>
    <path class="ms-cls-4" d="M3.99 43.34h34.22v34.22H3.99z"/>
    <path class="ms-cls-5" d="M41.77 43.34h34.22v34.22H41.77z"/>
    <path class="ms-cls-2" d="M3.99 5.56h34.22v34.22H3.99z"/>
    <path class="ms-cls-3" d="M41.77 5.56h34.22v34.22H41.77z"/>
    <path class="ms-cls-4" d="M3.99 43.34h34.22v34.22H3.99z"/>
    <path class="ms-cls-5" d="M41.77 43.34h34.22v34.22H41.77z"/>
  </g>
</svg>